{
  "parent": "block/utility/glow_item_frame",
  "display": {
    "gui": {
      "rotation": [30, 225, 0],
      "translation": [3.5, -2.3, -4],
      "scale": [0.8, 0.8, 0.8]
    },
    "ground": {
      "rotation": [0, 0, 0],
      "translation": [0, 3, -4],
      "scale": [0.5, 0.5, 0.5]
    },
    "fixed": {
      "rotation": [0, 0, 0],
      "translation": [0, 0, -3],
      "scale": [0.5, 0.5, 0.5]
    },
    "thirdperson_righthand": {
      "rotation": [75, 135, 0],
      "translation": [-2, 0, 0],
      "scale": [0.375, 0.375, 0.375]
    },
    "firstperson_righthand": {
      "rotation": [0, 135, 0],
      "translation": [0, 1, 0],
      "scale": [0.4, 0.4, 0.4]
    },
    "firstperson_lefthand": {
      "rotation": [0, 135, 0],
      "translation": [0, 1, 0],
      "scale": [0.4, 0.4, 0.4]
    }
  }
}
